GLMM per art
…
Not all periods have identical length. Hence, I need to set a maximum length for my period durations. As proposed by Neri, I will calculate the median for white LED-periods and IR-periods, and use the smallest median to shorten all periods overextending that value.

First Ill filter out any periods shorter than 4 days ( as of 18.02.2021, only 1 period ). Then Ill cut the duration of all periods overextending the smallest median.

# find median period length
time.period <- time.dep2 %>% group_by(loc, period, flash) %>% 
  summarise(period_length = max(time.deploy))

# checking shortest periods
time.period %>% arrange(period_length) # 1 period (LED) is 0 days

## # A tibble: 210 x 4
## # Groups:   loc, period [210]
##    loc   period    flash   period_length
##    <fct> <fct>     <fct>           <dbl>
##  1 829   LED_1     LED               0  
##  2 925   LED_1     LED               0.8
##  3 662   Control_1 Control           0.9
##  4 850   LED_2     LED               0.9
##  5 829   IR_2      IR                1.2
##  6 855   Control_3 Control           1.8
##  7 840   IR_1      IR                2.6
##  8 953   LED_2     LED               2.6
##  9 942   IR_1      IR                2.7
## 10 257   LED_2     LED               2.8
## # ... with 200 more rows
…
