…
```r
# find median period length
time.period <- time.dep2 %>% group_by(loc, period, flash) %>% 
  summarise(period_length = max(time.deploy))

# checking shortest periods
time.period %>% arrange(period_length) # 1 period (LED) is 0 days
```

```
## # A tibble: 211 x 4
## # Groups:   loc, period [211]
##    loc   period    flash   period_length
##    <fct> <fct>     <fct>           <dbl>
##  1 829   LED_1     LED               0  
##  2 925   LED_1     LED               0.8
##  3 850   LED_2     LED               0.9
##  4 664   Control_2 Control           1.1
##  5 829   IR_2      IR                1.2
##  6 855   Control_3 Control           1.8
##  7 840   IR_1      IR                2.6
##  8 953   LED_2     LED               2.6
##  9 258   Control_1 Control           2.7
## 10 942   IR_1      IR                2.7
## # ... with 201 more rows
```
…
